rtl/logs/datapath_log_2.txt
Reading pref.tcl

# 10.7d

# vsim -c december_top_file_tb -do "run -all; quit" 
# Start time: 11:10:09 on Jan 17,2025
# ** Note: (vsim-3813) Design is being optimized due to module recompilation...
# //  ModelSim SE-64 10.7d Feb 15 2019 Linux 4.18.0-553.34.1.el8_10.x86_64
# //
# //  Copyright 1991-2019 Mentor Graphics Corporation
# //  All Rights Reserved.
# //
# //  ModelSim SE-64 and its associated documentation contain trade
# //  secrets and commercial or financial information that are the property of
# //  Mentor Graphics Corporation and are privileged, confidential,
# //  and exempt from disclosure under the Freedom of Information Act,
# //  5 U.S.C. Section 552. Furthermore, this information
# //  is prohibited from disclosure under the Trade Secrets Act,
# //  18 U.S.C. Section 1905.
# //
# Loading work.december_top_file_tb(fast)
# run -all
# Address Translation Table Initialized.
# [MC W-FSM] In WIDLE
# Read operation: Address = x, Data = 0 (Addr_o = 0, Mask_o = 0)
# Clause_Table: Read mem[0] = 0xxxxxxxxxxxxxxxxxxxxxxxxxxxxxxxxxxxxxxxxxxxxxxxxxxxxxxxxxxxxxxxxxxxxxxxxxxxxxxxxxxxxxxxxxxxxxxxxxxxxxxxxxxxxxxxxxxxxxxxxx
# Read operation: Address = 0, Data = x (Addr_o = x, Mask_o = x)
# Clause_Table: Read mem[x] = 0x000000000000000000000000000000000000000000000000000000000000000000000000000000000000000000000000000000000000000000000000
# Read operation: Address = 0, Data = 0 (Addr_o = 0, Mask_o = 0)
# Clause_Table: Read mem[0] = 0xxxxxxxxxxxxxxxxxxxxxxxxxxxxxxxxxxxxxxxxxxxxxxxxxxxxxxxxxxxxxxxxxxxxxxxxxxxxxxxxxxxxxxxxxxxxxxxxxxxxxxxxxxxxxxxxxxxxxxxxx
# Read operation: Address = 0, Data = 0 (Addr_o = 0, Mask_o = 0)
# Clause_Table: Read mem[0] = 0x000000000000000000000000000000000000000000000000000000000000000000000000000000000000000000000000000000000000000000000000
# Read operation: Address = 0, Data = 0 (Addr_o = 0, Mask_o = 0)
# Clause_Table: Read mem[0] = 0x000000000000000000000000000000000000000000000000000000000000000000000000000000000000000000000000000000000000000000000000
# Read operation: Address = 0, Data = 0 (Addr_o = 0, Mask_o = 0)
# Clause_Table: Read mem[0] = 0x000000000000000000000000000000000000000000000000000000000000000000000000000000000000000000000000000000000000000000000000
# [MC W-FSM] state=0, time=               55000, wburst_resp=00, wstate=00, s_axi_wvalid=0, s_axi_wready=0, s_axi_bvalid=0
# 
# --- Initializing first 4 variables to 0 in varcl1 region ---
# [MC W-FSM] In WIDLE
# Read operation: Address = 0, Data = 0 (Addr_o = 0, Mask_o = 0)
# Clause_Table: Read mem[0] = 0x000000000000000000000000000000000000000000000000000000000000000000000000000000000000000000000000000000000000000000000000
# [MC W-FSM] state=0, time=               65000, wburst_resp=00, wstate=00, s_axi_wvalid=0, s_axi_wready=0, s_axi_bvalid=0
# [MC W-FSM] In WADDR
# Reset de-asserted
# Read operation: Address = 0, Data = 0 (Addr_o = 0, Mask_o = 0)
# Clause_Table: Read mem[0] = 0x000000000000000000000000000000000000000000000000000000000000000000000000000000000000000000000000000000000000000000000000
# [MC W-FSM] state=1, time=               75000, wburst_resp=00, wstate=01, s_axi_wvalid=1, s_axi_wready=1, s_axi_bvalid=0
# [MC W-FSM] In WDATA
# [75000] AXI4_Memory_Controller: WDATA handshake => beat_count=0, waddr_beat=0x00022000, wlast=1
# Read operation: Address = 0, Data = 0 (Addr_o = 0, Mask_o = 0)
# Clause_Table: Read mem[0] = 0x000000000000000000000000000000000000000000000000000000000000000000000000000000000000000000000000000000000000000000000000
# [85000] AXI4_Memory_Controller: submodule decode => waddr_beat=0x00022000
#   => VARCL1 write: addr=0x000, data_bit=0
# [MC W-FSM] state=2, time=               85000, wburst_resp=00, wstate=10, s_axi_wvalid=1, s_axi_wready=1, s_axi_bvalid=0
# [MC W-FSM] In WRESP
# [85000] AXI4_Memory_Controller: WRESP done => returning to WIDLE
# Read operation: Address = 0, Data = 0 (Addr_o = 0, Mask_o = 0)
# Clause_Table: Read mem[0] = 0x000000000000000000000000000000000000000000000000000000000000000000000000000000000000000000000000000000000000000000000000
# [MC W-FSM] state=3, time=               95000, wburst_resp=00, wstate=11, s_axi_wvalid=0, s_axi_wready=0, s_axi_bvalid=0
# [MC W-FSM] In WIDLE
# Read operation: Address = 0, Data = 0 (Addr_o = 0, Mask_o = 0)
# Clause_Table: Read mem[0] = 0x000000000000000000000000000000000000000000000000000000000000000000000000000000000000000000000000000000000000000000000000
# [MC W-FSM] state=0, time=              105000, wburst_resp=00, wstate=00, s_axi_wvalid=0, s_axi_wready=0, s_axi_bvalid=1
# [MC W-FSM] In WIDLE
# Read operation: Address = 0, Data = 0 (Addr_o = 0, Mask_o = 0)
# Clause_Table: Read mem[0] = 0x000000000000000000000000000000000000000000000000000000000000000000000000000000000000000000000000000000000000000000000000
# [MC W-FSM] state=0, time=              115000, wburst_resp=00, wstate=00, s_axi_wvalid=0, s_axi_wready=0, s_axi_bvalid=0
# [MC W-FSM] In WADDR
# Read operation: Address = 0, Data = 0 (Addr_o = 0, Mask_o = 0)
# Clause_Table: Read mem[0] = 0x000000000000000000000000000000000000000000000000000000000000000000000000000000000000000000000000000000000000000000000000
# [MC W-FSM] state=1, time=              125000, wburst_resp=00, wstate=01, s_axi_wvalid=1, s_axi_wready=1, s_axi_bvalid=0
# [MC W-FSM] In WDATA
# [125000] AXI4_Memory_Controller: WDATA handshake => beat_count=0, waddr_beat=0x00022004, wlast=1
# Read operation: Address = 0, Data = 0 (Addr_o = 0, Mask_o = 0)
# Clause_Table: Read mem[0] = 0x000000000000000000000000000000000000000000000000000000000000000000000000000000000000000000000000000000000000000000000000
# [135000] AXI4_Memory_Controller: submodule decode => waddr_beat=0x00022004
#   => VARCL1 write: addr=0x000, data_bit=0
# [MC W-FSM] state=2, time=              135000, wburst_resp=00, wstate=10, s_axi_wvalid=1, s_axi_wready=1, s_axi_bvalid=0
# [MC W-FSM] In WRESP
# [135000] AXI4_Memory_Controller: WRESP done => returning to WIDLE
# Read operation: Address = 0, Data = 0 (Addr_o = 0, Mask_o = 0)
# Clause_Table: Read mem[0] = 0x000000000000000000000000000000000000000000000000000000000000000000000000000000000000000000000000000000000000000000000000
# [MC W-FSM] state=3, time=              145000, wburst_resp=00, wstate=11, s_axi_wvalid=0, s_axi_wready=0, s_axi_bvalid=0
# [MC W-FSM] In WIDLE
# Read operation: Address = 0, Data = 0 (Addr_o = 0, Mask_o = 0)
# Clause_Table: Read mem[0] = 0x000000000000000000000000000000000000000000000000000000000000000000000000000000000000000000000000000000000000000000000000
# [MC W-FSM] state=0, time=              155000, wburst_resp=00, wstate=00, s_axi_wvalid=0, s_axi_wready=0, s_axi_bvalid=1
# [MC W-FSM] In WIDLE
# Read operation: Address = 0, Data = 0 (Addr_o = 0, Mask_o = 0)
# Clause_Table: Read mem[0] = 0x000000000000000000000000000000000000000000000000000000000000000000000000000000000000000000000000000000000000000000000000
# [MC W-FSM] state=0, time=              165000, wburst_resp=00, wstate=00, s_axi_wvalid=0, s_axi_wready=0, s_axi_bvalid=0
# [MC W-FSM] In WADDR
# Read operation: Address = 0, Data = 0 (Addr_o = 0, Mask_o = 0)
# Clause_Table: Read mem[0] = 0x000000000000000000000000000000000000000000000000000000000000000000000000000000000000000000000000000000000000000000000000
# [MC W-FSM] state=1, time=              175000, wburst_resp=00, wstate=01, s_axi_wvalid=1, s_axi_wready=1, s_axi_bvalid=0
# [MC W-FSM] In WDATA
# [175000] AXI4_Memory_Controller: WDATA handshake => beat_count=0, waddr_beat=0x00022008, wlast=1
# Read operation: Address = 0, Data = 0 (Addr_o = 0, Mask_o = 0)
# Clause_Table: Read mem[0] = 0x000000000000000000000000000000000000000000000000000000000000000000000000000000000000000000000000000000000000000000000000
# [185000] AXI4_Memory_Controller: submodule decode => waddr_beat=0x00022008
#   => VARCL1 write: addr=0x004, data_bit=0
# [MC W-FSM] state=2, time=              185000, wburst_resp=00, wstate=10, s_axi_wvalid=1, s_axi_wready=1, s_axi_bvalid=0
# [MC W-FSM] In WRESP
# [185000] AXI4_Memory_Controller: WRESP done => returning to WIDLE
# Read operation: Address = 0, Data = 0 (Addr_o = 0, Mask_o = 0)
# Clause_Table: Read mem[0] = 0x000000000000000000000000000000000000000000000000000000000000000000000000000000000000000000000000000000000000000000000000
# [MC W-FSM] state=3, time=              195000, wburst_resp=00, wstate=11, s_axi_wvalid=0, s_axi_wready=0, s_axi_bvalid=0
# [MC W-FSM] In WIDLE
# Read operation: Address = 0, Data = 0 (Addr_o = 0, Mask_o = 0)
# Clause_Table: Read mem[0] = 0x000000000000000000000000000000000000000000000000000000000000000000000000000000000000000000000000000000000000000000000000
# [MC W-FSM] state=0, time=              205000, wburst_resp=00, wstate=00, s_axi_wvalid=0, s_axi_wready=0, s_axi_bvalid=1
# [MC W-FSM] In WIDLE
# Read operation: Address = 0, Data = 0 (Addr_o = 0, Mask_o = 0)
# Clause_Table: Read mem[0] = 0x000000000000000000000000000000000000000000000000000000000000000000000000000000000000000000000000000000000000000000000000
# [MC W-FSM] state=0, time=              215000, wburst_resp=00, wstate=00, s_axi_wvalid=0, s_axi_wready=0, s_axi_bvalid=0
# [MC W-FSM] In WADDR
# Read operation: Address = 0, Data = 0 (Addr_o = 0, Mask_o = 0)
# Clause_Table: Read mem[0] = 0x000000000000000000000000000000000000000000000000000000000000000000000000000000000000000000000000000000000000000000000000
# [MC W-FSM] state=1, time=              225000, wburst_resp=00, wstate=01, s_axi_wvalid=1, s_axi_wready=1, s_axi_bvalid=0
# [MC W-FSM] In WDATA
# [225000] AXI4_Memory_Controller: WDATA handshake => beat_count=0, waddr_beat=0x0002200c, wlast=1
# Read operation: Address = 0, Data = 0 (Addr_o = 0, Mask_o = 0)
# Clause_Table: Read mem[0] = 0x000000000000000000000000000000000000000000000000000000000000000000000000000000000000000000000000000000000000000000000000
# [235000] AXI4_Memory_Controller: submodule decode => waddr_beat=0x0002200c
#   => VARCL1 write: addr=0x008, data_bit=0
# [MC W-FSM] state=2, time=              235000, wburst_resp=00, wstate=10, s_axi_wvalid=1, s_axi_wready=1, s_axi_bvalid=0
# [MC W-FSM] In WRESP
# [235000] AXI4_Memory_Controller: WRESP done => returning to WIDLE
# Read operation: Address = 0, Data = 0 (Addr_o = 0, Mask_o = 0)
# Clause_Table: Read mem[0] = 0x000000000000000000000000000000000000000000000000000000000000000000000000000000000000000000000000000000000000000000000000
# [MC W-FSM] state=3, time=              245000, wburst_resp=00, wstate=11, s_axi_wvalid=0, s_axi_wready=0, s_axi_bvalid=0
# [MC W-FSM] In WIDLE
# Read operation: Address = 0, Data = 0 (Addr_o = 0, Mask_o = 0)
# Clause_Table: Read mem[0] = 0x000000000000000000000000000000000000000000000000000000000000000000000000000000000000000000000000000000000000000000000000
# [MC W-FSM] state=0, time=              255000, wburst_resp=00, wstate=00, s_axi_wvalid=0, s_axi_wready=0, s_axi_bvalid=1
# 
# --- Writing 3 clauses via AXI burst to clause table region ---
# [MC W-FSM] In WIDLE
# Read operation: Address = 0, Data = 0 (Addr_o = 0, Mask_o = 0)
# Clause_Table: Read mem[0] = 0x000000000000000000000000000000000000000000000000000000000000000000000000000000000000000000000000000000000000000000000000
# [MC W-FSM] state=0, time=              265000, wburst_resp=00, wstate=00, s_axi_wvalid=0, s_axi_wready=0, s_axi_bvalid=0
# [MC W-FSM] In WADDR
# Read operation: Address = 0, Data = 0 (Addr_o = 0, Mask_o = 0)
# Clause_Table: Read mem[0] = 0x000000000000000000000000000000000000000000000000000000000000000000000000000000000000000000000000000000000000000000000000
# [MC W-FSM] state=1, time=              275000, wburst_resp=00, wstate=01, s_axi_wvalid=1, s_axi_wready=1, s_axi_bvalid=0
# [MC W-FSM] In WDATA
# [275000] AXI4_Memory_Controller: WDATA handshake => beat_count=0, waddr_beat=0x00004000, wlast=0
# Read operation: Address = 0, Data = 0 (Addr_o = 0, Mask_o = 0)
# Clause_Table: Read mem[0] = 0x000000000000000000000000000000000000000000000000000000000000000000000000000000000000000000000000000000000000000000000000
# [285000] AXI4_Memory_Controller: submodule decode => waddr_beat=0x00004000
#   => CLAUSE write: sub-addr=0x000, data=0x00860381
# [MC W-FSM] state=2, time=              285000, wburst_resp=00, wstate=10, s_axi_wvalid=1, s_axi_wready=1, s_axi_bvalid=0
# [MC W-FSM] In WDATA
# [285000] AXI4_Memory_Controller: WDATA handshake => beat_count=1, waddr_beat=0x00004004, wlast=1
# Read operation: Address = 0, Data = 0 (Addr_o = 0, Mask_o = 0)
# Clause_Table: Written mem[0] = 0x000000000000000000000000000000000000000000000000000000000000000000000000000000000000000000000000000000000000000000860381
# Clause_Table: Read mem[0] = 0x000000000000000000000000000000000000000000000000000000000000000000000000000000000000000000000000000000000000000000000000
# [MC W-FSM] state=2, time=              295000, wburst_resp=00, wstate=10, s_axi_wvalid=1, s_axi_wready=1, s_axi_bvalid=0
# [295000] AXI4_Memory_Controller: submodule decode => waddr_beat=0x00004004
#   => CLAUSE write: sub-addr=0x000, data=0x00028704
# [MC W-FSM] In WRESP
# [295000] AXI4_Memory_Controller: WRESP done => returning to WIDLE
# Read operation: Address = 0, Data = 0 (Addr_o = 0, Mask_o = 0)
# Clause_Table: Written mem[4] = 0x000000000000000000000000000000000000000000000000000000000000000000000000000000000000000000000000000000000000000000028704
# Clause_Table: Read mem[0] = 0x000000000000000000000000000000000000000000000000000000000000000000000000000000000000000000000000000000000000000000860381
# [MC W-FSM] state=3, time=              305000, wburst_resp=00, wstate=11, s_axi_wvalid=0, s_axi_wready=0, s_axi_bvalid=0
# [MC W-FSM] In WIDLE
# Read operation: Address = 0, Data = 0 (Addr_o = 0, Mask_o = 0)
# Clause_Table: Read mem[0] = 0x000000000000000000000000000000000000000000000000000000000000000000000000000000000000000000000000000000000000000000860381
# [MC W-FSM] state=0, time=              315000, wburst_resp=00, wstate=00, s_axi_wvalid=0, s_axi_wready=0, s_axi_bvalid=1
# 
# --- Starting solver ---
# [MC W-FSM] In WIDLE
# Read operation: Address = 0, Data = 0 (Addr_o = 0, Mask_o = 0)
# Clause_Table: Read mem[0] = 0x000000000000000000000000000000000000000000000000000000000000000000000000000000000000000000000000000000000000000000860381
# [MC W-FSM] state=0, time=              325000, wburst_resp=00, wstate=00, s_axi_wvalid=0, s_axi_wready=0, s_axi_bvalid=0
# Read operation: Address = 0, Data = 0 (Addr_o = 0, Mask_o = 0)
# Clause_Table: Read mem[0] = 0x000000000000000000000000000000000000000000000000000000000000000000000000000000000000000000000000000000000000000000860381
# [MC W-FSM] state=0, time=              335000, wburst_resp=00, wstate=00, s_axi_wvalid=0, s_axi_wready=0, s_axi_bvalid=0
# Read operation: Address = 0, Data = 0 (Addr_o = 0, Mask_o = 0)
# Clause_Table: Read mem[0] = 0x000000000000000000000000000000000000000000000000000000000000000000000000000000000000000000000000000000000000000000860381
# [MC W-FSM] state=0, time=              345000, wburst_resp=00, wstate=00, s_axi_wvalid=0, s_axi_wready=0, s_axi_bvalid=0
# Read operation: Address = x, Data = 0 (Addr_o = 0, Mask_o = 0)
# Clause_Table: Read mem[0] = 0x000000000000000000000000000000000000000000000000000000000000000000000000000000000000000000000000000000000000000000860381
# [MC W-FSM] state=0, time=              355000, wburst_resp=00, wstate=00, s_axi_wvalid=0, s_axi_wready=0, s_axi_bvalid=0
# Read operation: Address = x, Data = x (Addr_o = x, Mask_o = x)
# Clause_Table: Read mem[x] = 0x000000000000000000000000000000000000000000000000000000000000000000000000000000000000000000000000000000000000000000860381
# [MC W-FSM] state=0, time=              365000, wburst_resp=00, wstate=00, s_axi_wvalid=0, s_axi_wready=0, s_axi_bvalid=0
# Read operation: Address = x, Data = x (Addr_o = x, Mask_o = x)
# Clause_Table: Read mem[x] = 0xxxxxxxxxxxxxxxxxxxxxxxxxxxxxxxxxxxxxxxxxxxxxxxxxxxxxxxxxxxxxxxxxxxxxxxxxxxxxxxxxxxxxxxxxxxxxxxxxxxxxxxxxxxxxxxxxxxxxxxxx
# [MC W-FSM] state=0, time=              375000, wburst_resp=00, wstate=00, s_axi_wvalid=0, s_axi_wready=0, s_axi_bvalid=0
# Read operation: Address = x, Data = x (Addr_o = x, Mask_o = x)
# Clause_Table: Read mem[x] = 0xxxxxxxxxxxxxxxxxxxxxxxxxxxxxxxxxxxxxxxxxxxxxxxxxxxxxxxxxxxxxxxxxxxxxxxxxxxxxxxxxxxxxxxxxxxxxxxxxxxxxxxxxxxxxxxxxxxxxxxxx
# [MC W-FSM] state=0, time=              385000, wburst_resp=00, wstate=00, s_axi_wvalid=0, s_axi_wready=0, s_axi_bvalid=0
# Read operation: Address = x, Data = x (Addr_o = x, Mask_o = x)
# Clause_Table: Read mem[x] = 0xxxxxxxxxxxxxxxxxxxxxxxxxxxxxxxxxxxxxxxxxxxxxxxxxxxxxxxxxxxxxxxxxxxxxxxxxxxxxxxxxxxxxxxxxxxxxxxxxxxxxxxxxxxxxxxxxxxxxxxxx
# [MC W-FSM] state=0, time=              395000, wburst_resp=00, wstate=00, s_axi_wvalid=0, s_axi_wready=0, s_axi_bvalid=0
# Read operation: Address = x, Data = x (Addr_o = x, Mask_o = x)
# Clause_Table: Read mem[x] = 0xxxxxxxxxxxxxxxxxxxxxxxxxxxxxxxxxxxxxxxxxxxxxxxxxxxxxxxxxxxxxxxxxxxxxxxxxxxxxxxxxxxxxxxxxxxxxxxxxxxxxxxxxxxxxxxxxxxxxxxxx
# [MC W-FSM] state=0, time=              405000, wburst_resp=00, wstate=00, s_axi_wvalid=0, s_axi_wready=0, s_axi_bvalid=0
# Read operation: Address = x, Data = x (Addr_o = x, Mask_o = x)
# Clause_Table: Read mem[x] = 0xxxxxxxxxxxxxxxxxxxxxxxxxxxxxxxxxxxxxxxxxxxxxxxxxxxxxxxxxxxxxxxxxxxxxxxxxxxxxxxxxxxxxxxxxxxxxxxxxxxxxxxxxxxxxxxxxxxxxxxxx
# [MC W-FSM] state=0, time=              415000, wburst_resp=00, wstate=00, s_axi_wvalid=0, s_axi_wready=0, s_axi_bvalid=0
# Read operation: Address = x, Data = x (Addr_o = x, Mask_o = x)
# Clause_Table: Read mem[x] = 0xxxxxxxxxxxxxxxxxxxxxxxxxxxxxxxxxxxxxxxxxxxxxxxxxxxxxxxxxxxxxxxxxxxxxxxxxxxxxxxxxxxxxxxxxxxxxxxxxxxxxxxxxxxxxxxxxxxxxxxxx
# [MC W-FSM] state=0, time=              425000, wburst_resp=00, wstate=00, s_axi_wvalid=0, s_axi_wready=0, s_axi_bvalid=0
# 
# --- Solver finished. Reading back first 8 variables from VARCL1 ---
# Read operation: Address = x, Data = x (Addr_o = x, Mask_o = x)
# Clause_Table: Read mem[x] = 0xxxxxxxxxxxxxxxxxxxxxxxxxxxxxxxxxxxxxxxxxxxxxxxxxxxxxxxxxxxxxxxxxxxxxxxxxxxxxxxxxxxxxxxxxxxxxxxxxxxxxxxxxxxxxxxxxxxxxxxxx
# [MC W-FSM] state=0, time=              435000, wburst_resp=00, wstate=00, s_axi_wvalid=0, s_axi_wready=0, s_axi_bvalid=0
# Read operation: Address = x, Data = x (Addr_o = x, Mask_o = x)
# Clause_Table: Read mem[x] = 0xxxxxxxxxxxxxxxxxxxxxxxxxxxxxxxxxxxxxxxxxxxxxxxxxxxxxxxxxxxxxxxxxxxxxxxxxxxxxxxxxxxxxxxxxxxxxxxxxxxxxxxxxxxxxxxxxxxxxxxxx
# [MC W-FSM] state=0, time=              445000, wburst_resp=00, wstate=00, s_axi_wvalid=0, s_axi_wready=0, s_axi_bvalid=0
# Read operation: Address = x, Data = x (Addr_o = x, Mask_o = x)
# Clause_Table: Read mem[x] = 0xxxxxxxxxxxxxxxxxxxxxxxxxxxxxxxxxxxxxxxxxxxxxxxxxxxxxxxxxxxxxxxxxxxxxxxxxxxxxxxxxxxxxxxxxxxxxxxxxxxxxxxxxxxxxxxxxxxxxxxxx
# [455000] AXI4_Memory_Controller: RDATA => beat_count=0, raddr_beat=0x00022000, rlast=0, rresp=00
#   read_from_submodules: raddr=0x00022000
#     => VARCL1 read: addr=0x000 => data_bit=0
# [MC W-FSM] state=0, time=              455000, wburst_resp=00, wstate=00, s_axi_wvalid=0, s_axi_wready=0, s_axi_bvalid=0
# Read operation: Address = x, Data = x (Addr_o = x, Mask_o = x)
# Clause_Table: Read mem[x] = 0xxxxxxxxxxxxxxxxxxxxxxxxxxxxxxxxxxxxxxxxxxxxxxxxxxxxxxxxxxxxxxxxxxxxxxxxxxxxxxxxxxxxxxxxxxxxxxxxxxxxxxxxxxxxxxxxxxxxxxxxx
# [MC W-FSM] state=0, time=              465000, wburst_resp=00, wstate=00, s_axi_wvalid=0, s_axi_wready=0, s_axi_bvalid=0
# x          1 = 0
# Read operation: Address = x, Data = x (Addr_o = x, Mask_o = x)
# Clause_Table: Read mem[x] = 0xxxxxxxxxxxxxxxxxxxxxxxxxxxxxxxxxxxxxxxxxxxxxxxxxxxxxxxxxxxxxxxxxxxxxxxxxxxxxxxxxxxxxxxxxxxxxxxxxxxxxxxxxxxxxxxxxxxxxxxxx
# [MC W-FSM] state=0, time=              475000, wburst_resp=00, wstate=00, s_axi_wvalid=0, s_axi_wready=0, s_axi_bvalid=0
# Read operation: Address = x, Data = x (Addr_o = x, Mask_o = x)
# Clause_Table: Read mem[x] = 0xxxxxxxxxxxxxxxxxxxxxxxxxxxxxxxxxxxxxxxxxxxxxxxxxxxxxxxxxxxxxxxxxxxxxxxxxxxxxxxxxxxxxxxxxxxxxxxxxxxxxxxxxxxxxxxxxxxxxxxxx
# [MC W-FSM] state=0, time=              485000, wburst_resp=00, wstate=00, s_axi_wvalid=0, s_axi_wready=0, s_axi_bvalid=0
# Read operation: Address = x, Data = x (Addr_o = x, Mask_o = x)
# Clause_Table: Read mem[x] = 0xxxxxxxxxxxxxxxxxxxxxxxxxxxxxxxxxxxxxxxxxxxxxxxxxxxxxxxxxxxxxxxxxxxxxxxxxxxxxxxxxxxxxxxxxxxxxxxxxxxxxxxxxxxxxxxxxxxxxxxxx
# [495000] AXI4_Memory_Controller: RDATA => beat_count=0, raddr_beat=0x00022004, rlast=0, rresp=00
#   read_from_submodules: raddr=0x00022004
#     => VARCL1 read: addr=0x004 => data_bit=0
# [MC W-FSM] state=0, time=              495000, wburst_resp=00, wstate=00, s_axi_wvalid=0, s_axi_wready=0, s_axi_bvalid=0
# Read operation: Address = x, Data = x (Addr_o = x, Mask_o = x)
# Clause_Table: Read mem[x] = 0xxxxxxxxxxxxxxxxxxxxxxxxxxxxxxxxxxxxxxxxxxxxxxxxxxxxxxxxxxxxxxxxxxxxxxxxxxxxxxxxxxxxxxxxxxxxxxxxxxxxxxxxxxxxxxxxxxxxxxxxx
# [MC W-FSM] state=0, time=              505000, wburst_resp=00, wstate=00, s_axi_wvalid=0, s_axi_wready=0, s_axi_bvalid=0
# x          2 = 0
# Read operation: Address = x, Data = x (Addr_o = x, Mask_o = x)
# Clause_Table: Read mem[x] = 0xxxxxxxxxxxxxxxxxxxxxxxxxxxxxxxxxxxxxxxxxxxxxxxxxxxxxxxxxxxxxxxxxxxxxxxxxxxxxxxxxxxxxxxxxxxxxxxxxxxxxxxxxxxxxxxxxxxxxxxxx
# [MC W-FSM] state=0, time=              515000, wburst_resp=00, wstate=00, s_axi_wvalid=0, s_axi_wready=0, s_axi_bvalid=0
# Read operation: Address = x, Data = x (Addr_o = x, Mask_o = x)
# Clause_Table: Read mem[x] = 0xxxxxxxxxxxxxxxxxxxxxxxxxxxxxxxxxxxxxxxxxxxxxxxxxxxxxxxxxxxxxxxxxxxxxxxxxxxxxxxxxxxxxxxxxxxxxxxxxxxxxxxxxxxxxxxxxxxxxxxxx
# [MC W-FSM] state=0, time=              525000, wburst_resp=00, wstate=00, s_axi_wvalid=0, s_axi_wready=0, s_axi_bvalid=0
# Read operation: Address = x, Data = x (Addr_o = x, Mask_o = x)
# Clause_Table: Read mem[x] = 0xxxxxxxxxxxxxxxxxxxxxxxxxxxxxxxxxxxxxxxxxxxxxxxxxxxxxxxxxxxxxxxxxxxxxxxxxxxxxxxxxxxxxxxxxxxxxxxxxxxxxxxxxxxxxxxxxxxxxxxxx
# [535000] AXI4_Memory_Controller: RDATA => beat_count=0, raddr_beat=0x00022008, rlast=0, rresp=00
#   read_from_submodules: raddr=0x00022008
#     => VARCL1 read: addr=0x008 => data_bit=0
# [MC W-FSM] state=0, time=              535000, wburst_resp=00, wstate=00, s_axi_wvalid=0, s_axi_wready=0, s_axi_bvalid=0
# Read operation: Address = x, Data = x (Addr_o = x, Mask_o = x)
# Clause_Table: Read mem[x] = 0xxxxxxxxxxxxxxxxxxxxxxxxxxxxxxxxxxxxxxxxxxxxxxxxxxxxxxxxxxxxxxxxxxxxxxxxxxxxxxxxxxxxxxxxxxxxxxxxxxxxxxxxxxxxxxxxxxxxxxxxx
# [MC W-FSM] state=0, time=              545000, wburst_resp=00, wstate=00, s_axi_wvalid=0, s_axi_wready=0, s_axi_bvalid=0
# x          3 = 0
# Read operation: Address = x, Data = x (Addr_o = x, Mask_o = x)
# Clause_Table: Read mem[x] = 0xxxxxxxxxxxxxxxxxxxxxxxxxxxxxxxxxxxxxxxxxxxxxxxxxxxxxxxxxxxxxxxxxxxxxxxxxxxxxxxxxxxxxxxxxxxxxxxxxxxxxxxxxxxxxxxxxxxxxxxxx
# [MC W-FSM] state=0, time=              555000, wburst_resp=00, wstate=00, s_axi_wvalid=0, s_axi_wready=0, s_axi_bvalid=0
# Read operation: Address = x, Data = x (Addr_o = x, Mask_o = x)
# Clause_Table: Read mem[x] = 0xxxxxxxxxxxxxxxxxxxxxxxxxxxxxxxxxxxxxxxxxxxxxxxxxxxxxxxxxxxxxxxxxxxxxxxxxxxxxxxxxxxxxxxxxxxxxxxxxxxxxxxxxxxxxxxxxxxxxxxxx
# [MC W-FSM] state=0, time=              565000, wburst_resp=00, wstate=00, s_axi_wvalid=0, s_axi_wready=0, s_axi_bvalid=0
# Read operation: Address = x, Data = x (Addr_o = x, Mask_o = x)
# Clause_Table: Read mem[x] = 0xxxxxxxxxxxxxxxxxxxxxxxxxxxxxxxxxxxxxxxxxxxxxxxxxxxxxxxxxxxxxxxxxxxxxxxxxxxxxxxxxxxxxxxxxxxxxxxxxxxxxxxxxxxxxxxxxxxxxxxxx
# [575000] AXI4_Memory_Controller: RDATA => beat_count=0, raddr_beat=0x0002200c, rlast=0, rresp=00
#   read_from_submodules: raddr=0x0002200c
#     => VARCL1 read: addr=0x00c => data_bit=0
# [MC W-FSM] state=0, time=              575000, wburst_resp=00, wstate=00, s_axi_wvalid=0, s_axi_wready=0, s_axi_bvalid=0
# Read operation: Address = x, Data = x (Addr_o = x, Mask_o = x)
# Clause_Table: Read mem[x] = 0xxxxxxxxxxxxxxxxxxxxxxxxxxxxxxxxxxxxxxxxxxxxxxxxxxxxxxxxxxxxxxxxxxxxxxxxxxxxxxxxxxxxxxxxxxxxxxxxxxxxxxxxxxxxxxxxxxxxxxxxx
# [MC W-FSM] state=0, time=              585000, wburst_resp=00, wstate=00, s_axi_wvalid=0, s_axi_wready=0, s_axi_bvalid=0
# x          4 = 0
# Read operation: Address = x, Data = x (Addr_o = x, Mask_o = x)
# Clause_Table: Read mem[x] = 0xxxxxxxxxxxxxxxxxxxxxxxxxxxxxxxxxxxxxxxxxxxxxxxxxxxxxxxxxxxxxxxxxxxxxxxxxxxxxxxxxxxxxxxxxxxxxxxxxxxxxxxxxxxxxxxxxxxxxxxxx
# [MC W-FSM] state=0, time=              595000, wburst_resp=00, wstate=00, s_axi_wvalid=0, s_axi_wready=0, s_axi_bvalid=0
# Read operation: Address = x, Data = x (Addr_o = x, Mask_o = x)
# Clause_Table: Read mem[x] = 0xxxxxxxxxxxxxxxxxxxxxxxxxxxxxxxxxxxxxxxxxxxxxxxxxxxxxxxxxxxxxxxxxxxxxxxxxxxxxxxxxxxxxxxxxxxxxxxxxxxxxxxxxxxxxxxxxxxxxxxxx
# [MC W-FSM] state=0, time=              605000, wburst_resp=00, wstate=00, s_axi_wvalid=0, s_axi_wready=0, s_axi_bvalid=0
# Read operation: Address = x, Data = x (Addr_o = x, Mask_o = x)
# Clause_Table: Read mem[x] = 0xxxxxxxxxxxxxxxxxxxxxxxxxxxxxxxxxxxxxxxxxxxxxxxxxxxxxxxxxxxxxxxxxxxxxxxxxxxxxxxxxxxxxxxxxxxxxxxxxxxxxxxxxxxxxxxxxxxxxxxxx
# [615000] AXI4_Memory_Controller: RDATA => beat_count=0, raddr_beat=0x00022010, rlast=0, rresp=00
#   read_from_submodules: raddr=0x00022010
#     => VARCL1 read: addr=0x010 => data_bit=0
# [MC W-FSM] state=0, time=              615000, wburst_resp=00, wstate=00, s_axi_wvalid=0, s_axi_wready=0, s_axi_bvalid=0
# Read operation: Address = x, Data = x (Addr_o = x, Mask_o = x)
# Clause_Table: Read mem[x] = 0xxxxxxxxxxxxxxxxxxxxxxxxxxxxxxxxxxxxxxxxxxxxxxxxxxxxxxxxxxxxxxxxxxxxxxxxxxxxxxxxxxxxxxxxxxxxxxxxxxxxxxxxxxxxxxxxxxxxxxxxx
# [MC W-FSM] state=0, time=              625000, wburst_resp=00, wstate=00, s_axi_wvalid=0, s_axi_wready=0, s_axi_bvalid=0
# x          5 = 0
# Read operation: Address = x, Data = x (Addr_o = x, Mask_o = x)
# Clause_Table: Read mem[x] = 0xxxxxxxxxxxxxxxxxxxxxxxxxxxxxxxxxxxxxxxxxxxxxxxxxxxxxxxxxxxxxxxxxxxxxxxxxxxxxxxxxxxxxxxxxxxxxxxxxxxxxxxxxxxxxxxxxxxxxxxxx
